[
    {
        "key": 1,
        "question":"1. Has serving at HAF been what you expected when you first started?",
        "type":"multiplechoice",
        "options":["Yes","No"]
    },
    {
        "key": 2,
        "question":" 2. What could we have done better to improve your experience?",
        "type":"inputbox"
    },
    {
        "key": 3,
        "question": "3. What do you enjoy most about serving at HAF?",
        "type":"inputbox"
    },
    {
        "key": 4,
        "question":"4. What don't you like about serving at HAF?",
        "type":"inputbox"
    },
    {
        "key": 5,
        "question": "5. What suggestion do you have to make the welcome experience into HAF better?",
        "type":"inputbox"
    },
    {
        "key": 6,
        "question": "6. What medium would you prefer when contacted by HAF team leaders during the week",
        "type":"multiplechoice",
        "options":["Email","WhatsApp","PhoneCall"]
    },
    {
        "key": 7,
        "question": "7. When would you prefer to be contacted during the week?",
        "type":"multiplechoice",
        "options":["Morning","Afternoon","Evening"]
    },
    {
        "key": 8,
        "question": "8. Would you be interested in a once a month meetup outside of the desk for your team ?",
        "type":"multiplechoice",
        "options":["Yes","No"]
    },
    {
        "key": 9,
        "question": "9. Which venue would you prefer for the meetup? ",
        "type":"multiplechoice",
        "options": ["Church (The Alex)","Cafe /Food Joint","Park","Other"]
    }

]